…
The following chunk creates a data frame with 5 columns. From left to right, the columns are a random sample of size 1000 from a standard Normal distribution, a random sample of size 1000 from a standard Normal distribution, a logical vector indicating whether the x + y &gt; 0, a numeric vector created by coercing the above logical vector, and a factor vector created by coercing the above logical vector, respectively.

``` r
problem2_df = tibble(
  x = rnorm(1000, mean = 0, sd = 1),
  y = rnorm(1000, mean = 0, sd = 1),
  vec_logical_greater_0 = ifelse((x + y) > 0, TRUE, FALSE),
  vec_lgl_to_num = as.numeric(vec_logical_greater_0),
  vec_lgl_to_fact = as.factor(vec_logical_greater_0)
  )
problem2_df
```

    ## # A tibble: 1,000 x 5
    ##          x       y vec_logical_greater_0 vec_lgl_to_num vec_lgl_to_fact
    ##      <dbl>   <dbl> <lgl>                          <dbl> <fct>          
    ##  1  0.230   1.58   TRUE                               1 TRUE           
    ##  2 -0.0249  0.950  TRUE                               1 TRUE           
    ##  3  0.296  -0.107  TRUE                               1 TRUE           
    ##  4  0.190   0.430  TRUE                               1 TRUE           
    ##  5  1.75    0.943  TRUE                               1 TRUE           
    ##  6 -1.35   -0.0503 FALSE                              0 FALSE          
    ##  7  1.75    0.339  TRUE                               1 TRUE           
    ##  8  0.496  -0.173  TRUE                               1 TRUE           
    ##  9  0.142   0.544  TRUE                               1 TRUE           
    ## 10 -0.398   0.250  FALSE                              0 FALSE          
    ## # ... with 990 more rows
…
