…
The following chunk creates a data frame with 5 columns. From left to right, the columns are a random sample of size 1000 from a standard Normal distribution, a random sample of size 1000 from a standard Normal distribution, a logical vector indicating whether the x + y &gt; 0, a numeric vector created by coercing the above logical vector, and a factor vector created by coercing the above logical vector, respectively.

``` r
problem2_df = tibble(
  x = rnorm(1000, mean = 0, sd = 1),
  y = rnorm(1000, mean = 0, sd = 1),
  vec_lgl_xy_greater_0 = ifelse((x + y) > 0, TRUE, FALSE),
  vec_lgl_to_num = as.numeric(vec_lgl_xy_greater_0),
  vec_lgl_to_fact = as.factor(vec_lgl_xy_greater_0)
  )
problem2_df
```

    ## # A tibble: 1,000 x 5
    ##          x       y vec_lgl_xy_greater_0 vec_lgl_to_num vec_lgl_to_fact
    ##      <dbl>   <dbl> <lgl>                         <dbl> <fct>          
    ##  1 -0.651   0.334  FALSE                             0 FALSE          
    ##  2  0.0348 -0.280  FALSE                             0 FALSE          
    ##  3 -1.93   -1.64   FALSE                             0 FALSE          
    ##  4  1.02    0.593  TRUE                              1 TRUE           
    ##  5  0.757  -0.0918 TRUE                              1 TRUE           
    ##  6  0.792   0.198  TRUE                              1 TRUE           
    ##  7  0.897  -0.751  TRUE                              1 TRUE           
    ##  8  1.25   -0.844  TRUE                              1 TRUE           
    ##  9 -0.263  -2.33   FALSE                             0 FALSE          
    ## 10 -2.08    0.206  FALSE                             0 FALSE          
    ## # ... with 990 more rows
…
